Twitter Text Mining
…
# Import the Twitter data
LLBean_complete <- read_csv("https://filedn.com/lJpzjOtA91quQEpwdrgCvcy/Business%20Data%20Mining%20and%20Knowledge%20Discovery/Datasets/LLBean.csv")
LLBean_complete <- LLBean_complete %>% filter(language == "en") %>% select(-language)

        Data Collection Summary: The dataset comprises 239,728 English-language tweets mentioning LLBean. To manage processing constraints, a random subset of 10,000 tweets was selected for this analysis.

LLBean <- LLBean_complete %>% sample_n(10000)
LLBean
## # A tibble: 10,000 × 1
##    tweet                                                                        
##                                                                            
##  1 #NAME?                                                                       
##  2 There is no other store that I have more respect for than @LLBean #FavoriteS…
##  3 @Matt_Whitcomb @LLBean That is a big bear!                                   
##  4 @_LLBean 1 ply? Might as well wipe my ass with a dryer sheet. Thin ass tp!!  
##  5 .@ThisAmerLife absolutely loved today's episode #591 ! Zoe Chase +  @LLBean …
##  6 So good I had to share! Check out all the items I'm loving on @Poshmarkapp f…
##  7 @amanda_mauder lands end is different than LLBean. ;p                        
##  8 @WellToDoYou @llbean would totally love to splurge to the shearling lined si…
##  9 #TBT Just another day at the office when the @LLBean Boot parks in front of …
## 10 @LLBean free shipping for the kitten too?  http://t.co/Nfpm4O2ws5            
## # … with 9,990 more rows
…
        Data Cleaning Summary: The text cleaning process involved several steps to remove URLs, special characters, punctuation, numbers, retweets, and excessive whitespace, resulting in a dataset suitable for text mining.

        Text Parsing

LLBean_tibble <- tibble(line = 1:nrow(LLBean), text = LLBean$tweet_clean)
LLBean_tibble
## # A tibble: 10,000 × 2
##     line text                                                                   
##                                                                       
##  1     1 ""                                                                     
##  2     2 "There is no other store that I have more respect for than"            
##  3     3 "That is a big bear"                                                   
##  4     4 "ply Might as well wipe my ass with a dryer sheet Thin ass tp"         
##  5     5 "absolutely loved todays episode Zoe Chase returns Simon Rich All Amaz…
##  6     6 "So good I had to share Check out all the items Im loving on from"     
##  7     7 "lands end is different than LLBean p"                                 
##  8     8 "would totally love to splurge to the shearling lined signature boots …
##  9     9 "Just another day at the office when the Boot parks in front of our ho…
## 10    10 "free shipping for the kitten too httptcoNfpmOws"                      
## # … with 9,990 more rows

LLBean_tidy <- LLBean_tibble %>% unnest_tokens(word, text)
LLBean_tidy
## # A tibble: 138,715 × 2
##     line word   
##       
##  1     2 there  
##  2     2 is     
##  3     2 no     
##  4     2 other  
##  5     2 store  
##  6     2 that  
##  7     2 i     
##  8     2 have  
##  9     2 more  
## 10     2 respect 
## # … with 138,705 more rows

LLBean_tidy <- LLBean_tidy %>% anti_join(stop_words)
LLBean_tidy
## # A tibble: 90,379 × 2
##     line word   
##       
##  1     2 store  
##  2     2 respect
##  3     3 big    
##  4     3 bear   
##  5     4 ply    
##  6     4 might
##  7     4 well
##  8     4 wipe
##  9     4 ass
## 10     4 dryer
## # … with 90,369 more rows
…
